code;beschrijving;observaties;structuur;vochtigheid;omschrijving
S20;strook-aardappel-seresta;aardappels net gepoot, twee week geleden drijfmest injectie, bemonsterd op de zandrug, in het oogstveldje;losse structuur, makkelijk steken;bovenlaag droog, daaronder redelijk vochtig;Gras
S21;strook-aardappel-seresta;aardappels net gepoot, twee week geleden drijfmest injectie, bemonsterd op de zandrug, in het oogstveldje;losse structuur, makkelijk steken;bovenlaag droog, daaronder redelijk vochtig;Gras
S22;monocultuur-seresta-aardappel;aardappels net gepoot, twee week geleden drijfmest injectie, bemonsterd op de zandrug, in het oogstveldje;losse structuur, iets losser dan de strook;bovenlaag droog, daaronder redelijk vochtig;Strook
S23;monocultuur-seresta-aardappel;aardappels net gepoot, twee week geleden drijfmest injectie, bemonsterd op de zandrug, in het oogstveldje;losse structuur, iets losser dan de strook;bovenlaag droog, daaronder redelijk vochtig;Strook
S24;systeem-gangbaar-seresta-aardapppel;bemonsterd op de zandrug, veld heterogeen, aardappels net gepoot,;losse structuur;bovenlaag zeer droog, daaronder redelijk vochtig;Bio
S25;systeem-gangbaar-seresta-aardapppel;bemonsterd op de zandrug, veld heterogeen, aardappels net gepoot,;losse structuur;bovenlaag zeer droog, daaronder redelijk vochtig;Bio
S26;systeem-gangbaar-seresta-aardapppel;bemonsterd op de zandrug, veld heterogeen, aardappels net gepoot,;losse structuur;bovenlaag zeer droog, daaronder redelijk vochtig;Gangbaar
S27;systeem-gangbaar-seresta-aardapppel;bemonsterd op de zandrug, veld heterogeen, aardappels net gepoot,;losse structuur;bovenlaag zeer droog, daaronder redelijk vochtig;Gangbaar
