Sample	Duplo	Monstercode MA	Conditie	Type
S46	1 	136	Schoon	Bac
S47	1	137	Schoon	Bac
S48	2	138	Ziek	Bac
S49	2	139	Ziek	Bac
S66	3	136	Schoon	Arc
S67	3	137	Schoon	Arc
S68	4	138	Ziek	Arc
S69	4	139	Ziek	Arc
